Q1
…
Figure 1: Plot of CEO departures

As figure Figure 1 does not provide much information regarding CEO departures, the following techniques were done to improve the plot.

ceo %>% 
   group_by(fyear, departure_code) %>% 
   count()

# A tibble: 255 × 3
# Groups:   fyear, departure_code [255]
   fyear departure_code     n
   <dbl>          <dbl> <int>
 1  1987              5     1
 2  1992              1     1
 3  1992              3    10
 4  1992              5    44
 5  1992              6     1
 6  1992              7     2
 7  1993              1     2
 8  1993              2     1
 9  1993              3    25
10  1993              4     1
# ℹ 245 more rows
…
